%YAML 1.1
%TAG !u! tag:unity3d.com,2011:
--- !u!114 &11400000
MonoBehaviour:
  m_ObjectHideFlags: 0
  m_CorrespondingSourceObject: {fileID: 0}
  m_PrefabInstance: {fileID: 0}
  m_PrefabAsset: {fileID: 0}
  m_GameObject: {fileID: 0}
  m_Enabled: 1
  m_EditorHideFlags: 0
  m_Script: {fileID: 11500000, guid: 5d0199c11aa6f514784c5c69cd8378d8, type: 3}
  m_Name: PlayFabEditorPrefsSO
  m_EditorClassIdentifier: 
  DevAccountEmail: contato.gersonduraes@gmail.com
  DevAccountToken: peu3ogebf9yoqw6kffwy67epx8zur56umsf58j8dr8fj1utq859pafjug5h5jpc3qcoxu1k91hn54apzbhpz19yerkk7feyjpbbbhkswgybcgp85ad4kq696jr1nxj4jbpqhtkukb6r4fbikwyppur91r9h5fhicjtxrked3rwp19knqxcb6mz9ttehn59sy6uwbehuk
  SelectedStudio: Odisseia
  SdkPath: Assets/PlayFabSDK
  EdExPath: 
  LocalCloudScriptPath: 
  PanelIsShown: 0
  curMainMenuIdx: 0
  curSubMenuIdx: 0
