%YAML 1.1
%TAG !u! tag:unity3d.com,2011:
--- !u!78 &1
TagManager:
  serializedVersion: 2
  tags:
  - parede
  - NoChao
  - passagem
  - pequeno
  - Final
  - GameOver
  layers:
  - Default
  - TransparentFX
  - Ignore Raycast
  - 
  - Water
  - UI
  - 
  - 
  - Ground Soft
  - Ground Hard
  - Primeiro
  - Bloco
  - BlocoCairFase1
  - 
  - 
  - 
  - 
  - 
  - 
  - 
  - 
  - 
  - 
  - 
  - 
  - 
  - 
  - 
  - 
  - 
  - 
  - 
  m_SortingLayers:
  - name: Background
    uniqueID: 3936676035
    locked: 0
  - name: Near Background
    uniqueID: 1988455705
    locked: 0
  - name: Cave
    uniqueID: 222040141
    locked: 0
  - name: Exterior
    uniqueID: 1752682665
    locked: 0
  - name: Default
    uniqueID: 0
    locked: 0
  - name: Foreground
    uniqueID: 1950422495
    locked: 0
  - name: Near Foreground
    uniqueID: 2727812175
    locked: 0
  - name: fundo
    uniqueID: 2079752675
    locked: 0
